PROJECT/PROJECT.sim/sim_1/behav/xsim/top_tb.vcd
$date
   Sat Jan 10 22:44:04 2026
$end

$version
  2023.2
  $dumpfile ("top_tb.vcd") 
$end

$timescale
  1ps
$end

$scope module TOP_tb $end
$var reg 1 ! clk $end
$var reg 1 " rst $end
$var wire 16 # pc_current [15:0] $end
$var wire 16 $ result_final [15:0] $end
$var wire 4 % write_reg [3:0] $end
$var wire 2 & spec_reg_id [1:0] $end
$var wire 16 ' R_zero [15:0] $end
$var wire 16 ( hi [15:0] $end
$var wire 16 ) lo [15:0] $end
$var wire 16 * r0 [15:0] $end
$var integer 32 + cycle [31:0] $end
$scope module uut $end
$var wire 1 , clk $end
$var wire 1 - rst $end
$var wire 16 # pc_current [15:0] $end
$var wire 16 $ result_final [15:0] $end
$var wire 4 % write_reg [3:0] $end
$var wire 2 & spec_reg_id [1:0] $end
$var wire 16 . IF_pc_current [15:0] $end
$var wire 16 / IF_pc_plus_2 [15:0] $end
$var wire 16 0 IF_instruction [15:0] $end
$var wire 16 1 ID_pc [15:0] $end
$var wire 16 2 ID_pc_plus [15:0] $end
$var wire 16 3 ID_instruction [15:0] $end
$var wire 1 4 IF_ID_Write $end
$var wire 1 5 ID_regDst $end
$var wire 1 6 ID_ALUSrc $end
$var wire 1 7 ID_memRead $end
$var wire 1 8 ID_memWrite $end
$var wire 1 9 ID_regWrite $end
$var wire 1 : ID_memToReg $end
$var wire 1 ; ID_halt $end
$var wire 2 < ID_PCSrc [1:0] $end
$var wire 6 = ID_ALU_cnt [5:0] $end
$var wire 2 > ID_r_spec_regs [1:0] $end
$var wire 2 ? ID_w_spec_regs [1:0] $end
$var wire 1 @ ID_is_jump $end
$var reg 1 A halt_detected $end
$var wire 1 B halt_signal $end
$var wire 16 C jr_address [15:0] $end
$var wire 16 D j_address [15:0] $end
$var wire 16 E ID_rd1 [15:0] $end
$var wire 16 F ID_rd2 [15:0] $end
$var wire 16 G ID_br_target [15:0] $end
$var wire 16 H ID_extended_int [15:0] $end
$var wire 16 I ID_pc_out [15:0] $end
$var wire 3 J ID_rs [2:0] $end
$var wire 3 K ID_rt [2:0] $end
$var wire 3 L ID_rd [2:0] $end
$var wire 6 M EX_ALU_cnt [5:0] $end
$var wire 2 N EX_PCSrc [1:0] $end
$var wire 2 O EX_r_spec_regs [1:0] $end
$var wire 2 P EX_w_spec_regs [1:0] $end
$var wire 1 Q EX_regDst $end
$var wire 1 R EX_ALUSrc $end
$var wire 1 S EX_memWrite $end
$var wire 1 T EX_memRead $end
$var wire 1 U EX_regWrite $end
$var wire 1 V EX_memToReg $end
$var wire 1 W EX_halt $end
$var wire 1 X branch_taken $end
$var wire 16 Y EX_pc [15:0] $end
$var wire 16 Z EX_pc_plus [15:0] $end
$var wire 16 [ EX_rd1 [15:0] $end
$var wire 16 \ EX_rd2 [15:0] $end
$var wire 16 ] EX_sign_ext [15:0] $end
$var wire 16 ^ EX_br_target [15:0] $end
$var wire 3 _ EX_rs [2:0] $end
$var wire 3 ` EX_rt [2:0] $end
$var wire 3 a EX_rd [2:0] $end
$var wire 16 b EX_alu_result [15:0] $end
$var wire 16 c EX_forward_rd2 [15:0] $end
$var wire 1 d EX_zero $end
$var wire 2 e EX_ForwardA [1:0] $end
$var wire 2 f EX_ForwardB [1:0] $end
$var wire 1 g MEM_memWrite $end
$var wire 1 h MEM_memRead $end
$var wire 1 i MEM_regWrite $end
$var wire 1 j MEM_memToReg $end
$var wire 2 k MEM_PCSrc [1:0] $end
$var wire 2 l MEM_w_spec_regs [1:0] $end
$var wire 1 m MEM_halt $end
$var wire 16 n MEM_pc [15:0] $end
$var wire 16 o MEM_pc_plus [15:0] $end
$var wire 16 p MEM_alu_result [15:0] $end
$var wire 16 q MEM_rd2 [15:0] $end
$var wire 16 r MEM_br_target [15:0] $end
$var wire 3 s MEM_write_reg [2:0] $end
$var wire 1 t MEM_zero $end
$var wire 3 u EX_MEM_Rd [2:0] $end
$var wire 1 v EX_MEM_RegWrite $end
$var wire 16 w MEM_read_data_out [15:0] $end
$var wire 16 x MEM_alu_result_out [15:0] $end
$var wire 3 y MEM_write_reg_addr_out [2:0] $end
$var wire 1 z MEM_memToReg_out $end
$var wire 1 { MEM_regWrite_out $end
$var wire 2 | MEM_w_spec_regs_out [1:0] $end
$var wire 1 } MEM_halt_out $end
$var wire 1 ~ WB_regWrite $end
$var wire 1 !! WB_memToReg $end
$var wire 1 "! WB_halt $end
$var wire 2 #! WB_w_spec_regs [1:0] $end
$var wire 16 $! WB_read_data [15:0] $end
$var wire 16 %! WB_alu_result [15:0] $end
$var wire 3 &! WB_write_reg_addr [2:0] $end
$var wire 16 '! WB_write_data [15:0] $end
$var wire 1 (! WB_halt_out $end
$var wire 1 )! pc_write $end
$scope module if_stage $end
$var wire 1 , clk $end
$var wire 1 - rst $end
$var wire 1 @ is_jump $end
$var wire 1 B halt $end
$var wire 1 4 pc_write $end
$var wire 2 N EX_PCSrc [1:0] $end
$var wire 16 D address_target_id [15:0] $end
$var wire 16 ^ address_target_ex [15:0] $end
$var wire 16 C jr_address [15:0] $end
$var wire 1 X branch_taken $end
$var wire 16 . pc_current [15:0] $end
$var wire 16 / pc_plus_2 [15:0] $end
$var wire 16 0 instruction [15:0] $end
$var wire 16 *! pc_next_internal [15:0] $end
$scope module pc_system $end
$var wire 1 , clk $end
$var wire 1 - rst $end
$var wire 1 B halt $end
$var wire 1 4 write $end
$var wire 16 D address_target_id [15:0] $end
$var wire 16 ^ address_target_ex [15:0] $end
$var wire 16 C jr_address [15:0] $end
$var wire 2 N PCSrc_ex [1:0] $end
$var wire 1 @ is_jump $end
$var wire 1 X branch_taken $end
$var wire 16 . pc [15:0] $end
$var wire 16 / pc_plus [15:0] $end
$var wire 16 *! pc_next [15:0] $end
$scope module add_pc_inst $end
$var wire 16 . pc [15:0] $end
$var wire 16 / pc_plus [15:0] $end
$upscope $end
$scope module mux_pc_inst $end
$var wire 1 - rst $end
$var wire 16 / pc_plus [15:0] $end
$var wire 16 D address_target_id [15:0] $end
$var wire 16 ^ address_target_ex [15:0] $end
$var wire 16 C jr_address [15:0] $end
$var wire 2 N PCSrc_ex [1:0] $end
$var wire 1 @ is_jump $end
$var wire 1 X branch_taken $end
$var reg 16 +! pc_next [15:0] $end
$upscope $end
$scope module pc_inst $end
$var wire 1 , clk $end
$var wire 1 - rst $end
$var wire 1 B halt $end
$var wire 1 4 write $end
$var wire 16 *! pc_next [15:0] $end
$var reg 16 ,! pc [15:0] $end
$upscope $end
$upscope $end
$scope module instruction_memory $end
$var wire 16 . addr [15:0] $end
$var reg 16 -! instr [15:0] $end
$var wire 15 .! word_addr [14:0] $end
$var integer 32 /! i [31:0] $end
$upscope $end
$upscope $end
$scope module if_id_reg $end
$var wire 1 , clk $end
$var wire 1 - rst $end
$var wire 1 0! IF_ID_Write $end
$var wire 1 1! IF_ID_Flush $end
$var wire 16 . IF_pc [15:0] $end
$var wire 16 / IF_pc_plus [15:0] $end
$var wire 16 0 IF_instruction [15:0] $end
$var reg 16 2! ID_pc [15:0] $end
$var reg 16 3! ID_pc_plus [15:0] $end
$var reg 16 4! ID_instruction [15:0] $end
$upscope $end
$scope module id_stage $end
$var wire 1 , clk $end
$var wire 1 - rst $end
$var wire 16 1 pc [15:0] $end
$var wire 16 3 inst [15:0] $end
$var wire 1 ~ regWrite_wb $end
$var wire 3 &! write_reg [2:0] $end
$var wire 16 '! write_data [15:0] $end
$var wire 2 #! w_spec_regs_wb [1:0] $end
$var wire 3 5! if_rs [2:0] $end
$var wire 3 6! if_rt [2:0] $end
$var wire 3 ` ex_rt [2:0] $end
$var wire 1 T ex_memRead $end
$var wire 1 5 regDst $end
$var wire 1 6 ALUSrc $end
$var wire 1 7 memRead $end
$var wire 1 8 memWrite $end
$var wire 1 9 regWrite $end
$var wire 1 : memToReg $end
$var wire 2 < PCSrc [1:0] $end
$var wire 6 = ALU_cnt [5:0] $end
$var wire 2 > r_spec_regs [1:0] $end
$var wire 2 ? w_spec_regs [1:0] $end
$var wire 1 ; halt $end
$var wire 16 E rd1 [15:0] $end
$var wire 16 F rd2 [15:0] $end
$var wire 16 D j_address [15:0] $end
$var wire 16 G branch_target [15:0] $end
$var wire 16 H extended_int [15:0] $end
$var wire 16 I pc_out [15:0] $end
$var wire 3 J id_rs [2:0] $end
$var wire 3 K id_rt [2:0] $end
$var wire 3 L id_rd [2:0] $end
$var wire 1 4 Write $end
$var wire 1 @ is_jump $end
$var wire 1 7! controlunit_is_jump $end
$var wire 16 8! rf_rd1 [15:0] $end
$var wire 16 9! rf_rd2 [15:0] $end
$var wire 1 :! HazardControl $end
$var wire 4 ;! opcode [3:0] $end
$var wire 3 <! rs [2:0] $end
$var wire 3 =! rt [2:0] $end
$var wire 3 >! rd [2:0] $end
$var wire 3 ?! funct [2:0] $end
$var wire 6 @! imm [5:0] $end
$var wire 12 A! address [11:0] $end
$var wire 6 B! ALU_cnt_ctrl [5:0] $end
$var wire 2 C! PCSrc_ctrl [1:0] $end
$var wire 2 D! r_spec_regs_ctrl [1:0] $end
$var wire 2 E! w_spec_regs_ctrl [1:0] $end
$var wire 1 F! regDst_ctrl $end
$var wire 1 G! ALUSrc_ctrl $end
$var wire 1 H! memWrite_ctrl $end
$var wire 1 I! memRead_ctrl $end
$var wire 1 J! regWrite_ctrl $end
$var wire 1 K! memToReg_ctrl $end
$var wire 1 L! halt_ctrl $end
$scope module CU $end
$var wire 4 ;! opcode [3:0] $end
$var wire 3 ?! funct [2:0] $end
$var reg 2 M! PCSrc [1:0] $end
$var reg 2 N! r_spec_regs [1:0] $end
$var reg 2 O! w_spec_regs [1:0] $end
$var reg 1 P! regDst $end
$var reg 1 Q! ALUSrc $end
$var reg 1 R! memWrite $end
$var reg 1 S! memRead $end
$var reg 1 T! regWrite $end
$var reg 1 U! memToReg $end
$var reg 1 V! halt $end
$var reg 6 W! ALU_cnt [5:0] $end
$var reg 1 X! is_jump $end
$upscope $end
$scope module HAZARD_UNIT $end
$var wire 3 <! IF_ID_RegisterRs [2:0] $end
$var wire 3 =! IF_ID_RegisterRt [2:0] $end
$var wire 3 ` ID_EX_RegisterRt [2:0] $end
$var wire 1 T ID_EX_MemRead $end
$var reg 1 Y! Write $end
$var reg 1 Z! HazardMuxControl $end
$upscope $end
$scope module MUX_UNIT $end
$var wire 1 :! HazardMuxControl $end
$var wire 6 B! ALU_cnt [5:0] $end
$var wire 2 C! PCSrc [1:0] $end
$var wire 2 D! r_spec_regs [1:0] $end
$var wire 2 E! w_spec_regs [1:0] $end
$var wire 1 F! regDst $end
$var wire 1 G! ALUSrc $end
$var wire 1 H! memWrite $end
$var wire 1 I! memRead $end
$var wire 1 J! regWrite $end
$var wire 1 K! memToReg $end
$var wire 1 L! halt $end
$var reg 6 [! ALU_cnt_out [5:0] $end
$var reg 2 \! PCSrc_out [1:0] $end
$var reg 2 ]! r_spec_regs_out [1:0] $end
$var reg 2 ^! w_spec_regs_out [1:0] $end
$var reg 1 _! regDst_out $end
$var reg 1 `! ALUSrc_out $end
$var reg 1 a! memWrite_out $end
$var reg 1 b! memRead_out $end
$var reg 1 c! regWrite_out $end
$var reg 1 d! memToReg_out $end
$var reg 1 e! halt_out $end
$upscope $end
$scope module sign_extender $end
$var wire 6 @! immediate [5:0] $end
$var reg 16 f! sign_extend [15:0] $end
$upscope $end
$scope module regFile $end
$var wire 1 , clk $end
$var wire 1 - rst $end
$var wire 1 ~ reg_write $end
$var wire 3 &! write_reg [2:0] $end
$var wire 16 '! write_data [15:0] $end
$var wire 3 <! rs [2:0] $end
$var wire 3 =! rt [2:0] $end
$var wire 2 > r_spec_regs [1:0] $end
$var wire 2 #! w_spec_regs [1:0] $end
$var wire 16 8! rd1 [15:0] $end
$var wire 16 9! rd2 [15:0] $end
$var reg 4 g! actual_write_reg [3:0] $end
$var integer 32 h! i [31:0] $end
$var reg 16 i! rd1_data [15:0] $end
$upscope $end
$upscope $end
$scope module id_ex_reg $end
$var wire 1 , clk $end
$var wire 1 - rst $end
$var wire 6 = ID_ALU_cnt [5:0] $end
$var wire 2 < ID_PCSrc [1:0] $end
$var wire 2 > ID_r_spec_regs [1:0] $end
$var wire 2 ? ID_w_spec_regs [1:0] $end
$var wire 1 5 ID_regDst $end
$var wire 1 6 ID_ALUSrc $end
$var wire 1 8 ID_memWrite $end
$var wire 1 7 ID_memRead $end
$var wire 1 9 ID_regWrite $end
$var wire 1 : ID_memToReg $end
$var wire 1 ; ID_halt $end
$var wire 16 I ID_pc [15:0] $end
$var wire 16 2 ID_pc_plus [15:0] $end
$var wire 16 E ID_rd1 [15:0] $end
$var wire 16 F ID_rd2 [15:0] $end
$var wire 16 H ID_sign_ext [15:0] $end
$var wire 16 G ID_br_target [15:0] $end
$var wire 3 J ID_rs [2:0] $end
$var wire 3 K ID_rt [2:0] $end
$var wire 3 L ID_rd [2:0] $end
$var wire 1 j! ID_EX_Flush $end
$var reg 6 k! EX_ALU_cnt [5:0] $end
$var reg 2 l! EX_PCSrc [1:0] $end
$var reg 2 m! EX_r_spec_regs [1:0] $end
$var reg 2 n! EX_w_spec_regs [1:0] $end
$var reg 1 o! EX_regDst $end
$var reg 1 p! EX_ALUSrc $end
$var reg 1 q! EX_memWrite $end
$var reg 1 r! EX_memRead $end
$var reg 1 s! EX_regWrite $end
$var reg 1 t! EX_memToReg $end
$var reg 1 u! EX_halt $end
$var reg 16 v! EX_pc [15:0] $end
$var reg 16 w! EX_pc_plus [15:0] $end
$var reg 16 x! EX_rd1 [15:0] $end
$var reg 16 y! EX_rd2 [15:0] $end
$var reg 16 z! EX_sign_ext [15:0] $end
$var reg 16 {! EX_br_target [15:0] $end
$var reg 3 |! EX_rs [2:0] $end
$var reg 3 }! EX_rt [2:0] $end
$var reg 3 ~! EX_rd [2:0] $end
$var wire 3 !" destination_reg [2:0] $end
$upscope $end
$scope module ex_stage $end
$var wire 1 , clk $end
$var wire 1 - rst $end
$var wire 3 _ ID_EX_Rs [2:0] $end
$var wire 3 ` ID_EX_Rt [2:0] $end
$var wire 16 [ ID_EX_rd1 [15:0] $end
$var wire 16 \ ID_EX_rd2 [15:0] $end
$var wire 16 ] ID_EX_sign_extend [15:0] $end
$var wire 16 Y ID_EX_PC [15:0] $end
$var wire 2 O ID_EX_r_spec_regs [1:0] $end
$var wire 6 M ALU_cnt [5:0] $end
$var wire 1 R ALUSrc $end
$var wire 3 s EX_MEM_Rd [2:0] $end
$var wire 1 i EX_MEM_RegWrite $end
$var wire 16 p EX_MEM_alu_result [15:0] $end
$var wire 2 P EX_MEM_w_spec_regs [1:0] $end
$var wire 3 &! MEM_WB_Rd [2:0] $end
$var wire 1 ~ MEM_WB_RegWrite $end
$var wire 16 '! MEM_WB_write_data [15:0] $end
$var wire 2 | MEM_WB_w_spec_regs [1:0] $end
$var wire 2 N PCSrc [1:0] $end
$var wire 1 X branch_taken $end
$var wire 16 b alu_result [15:0] $end
$var wire 16 c forward_rd2 [15:0] $end
$var wire 1 d zero $end
$var wire 2 e ForwardA_out [1:0] $end
$var wire 2 f ForwardB_out [1:0] $end
$var wire 16 C forward_rd1 [15:0] $end
$var wire 2 "" ForwardA_internal [1:0] $end
$var wire 2 #" ForwardB_internal [1:0] $end
$scope module forwarding_unit $end
$var wire 3 _ ID_EX_Rs [2:0] $end
$var wire 3 ` ID_EX_Rt [2:0] $end
$var wire 2 O ID_EX_r_spec_regs [1:0] $end
$var wire 3 s EX_MEM_Rd [2:0] $end
$var wire 2 P EX_MEM_w_spec_regs [1:0] $end
$var wire 1 i EX_MEM_RegWrite $end
$var wire 3 &! MEM_WB_Rd [2:0] $end
$var wire 2 | MEM_WB_w_spec_regs [1:0] $end
$var wire 1 ~ MEM_WB_RegWrite $end
$var reg 2 $" ForwardA [1:0] $end
$var reg 2 %" ForwardB [1:0] $end
$upscope $end
$scope module alu_system $end
$var wire 1 , clk $end
$var wire 1 - rst $end
$var wire 6 M ALU_cnt [5:0] $end
$var wire 1 R ALUSrc $end
$var wire 16 [ ID_EX_rd1 [15:0] $end
$var wire 16 \ ID_EX_rd2 [15:0] $end
$var wire 16 ] sign_extend [15:0] $end
$var wire 16 Y PC_in [15:0] $end
$var wire 2 "" ForwardA [1:0] $end
$var wire 2 #" ForwardB [1:0] $end
$var wire 16 p EX_MEM_alu_result [15:0] $end
$var wire 16 '! MEM_WB_write_data [15:0] $end
$var wire 16 b alu_result [15:0] $end
$var wire 16 c forward_rd2 [15:0] $end
$var wire 16 C forward_rd1 [15:0] $end
$var wire 1 d zero $end
$var wire 16 &" forward_rs1 [15:0] $end
$var wire 16 '" alu_operand2 [15:0] $end
$scope module mux_forward_a $end
$var wire 16 [ in0 [15:0] $end
$var wire 16 '! in1 [15:0] $end
$var wire 16 p in2 [15:0] $end
$var wire 2 "" select [1:0] $end
$var reg 16 (" out [15:0] $end
$upscope $end
$scope module mux_forward_b $end
$var wire 16 \ in0 [15:0] $end
$var wire 16 '! in1 [15:0] $end
$var wire 16 p in2 [15:0] $end
$var wire 2 #" select [1:0] $end
$var reg 16 )" out [15:0] $end
$upscope $end
$scope module mux_alu $end
$var wire 1 R ALUSrc $end
$var wire 16 c rs2 [15:0] $end
$var wire 16 ] sign_extend [15:0] $end
$var wire 16 '" out [15:0] $end
$upscope $end
$scope module alu $end
$var wire 16 &" rs1 [15:0] $end
$var wire 16 '" out [15:0] $end
$var wire 6 M ALU_cnt [5:0] $end
$var wire 16 Y PC_in [15:0] $end
$var reg 16 *" result [15:0] $end
$var wire 1 d zero $end
$var reg 32 +" mul_result [31:0] $end
$var reg 16 ," div_hi [15:0] $end
$var reg 16 -" div_lo [15:0] $end
$var reg 1 ." zero_t $end
$upscope $end
$upscope $end
$upscope $end
$scope module ex_mem_reg $end
$var wire 1 , clk $end
$var wire 1 - rst $end
$var wire 1 S EX_memWrite $end
$var wire 1 T EX_memRead $end
$var wire 1 U EX_regWrite $end
$var wire 1 V EX_memtoReg $end
$var wire 2 P EX_w_spec_regs [1:0] $end
$var wire 1 W EX_halt $end
$var wire 16 Y EX_pc [15:0] $end
$var wire 16 Z EX_pc_plus [15:0] $end
$var wire 16 b EX_alu_result [15:0] $end
$var wire 16 c EX_rd2 [15:0] $end
$var wire 3 a EX_write_reg [2:0] $end
$var reg 1 /" MEM_memWrite $end
$var reg 1 0" MEM_memRead $end
$var reg 1 1" MEM_regWrite $end
$var reg 1 2" MEM_memtoReg $end
$var reg 2 3" MEM_w_spec_regs [1:0] $end
$var reg 1 4" MEM_halt $end
$var reg 16 5" MEM_pc [15:0] $end
$var reg 16 6" MEM_pc_plus [15:0] $end
$var reg 16 7" MEM_alu_result [15:0] $end
$var reg 16 8" MEM_rd2 [15:0] $end
$var reg 3 9" MEM_write_reg [2:0] $end
$upscope $end
$scope module mem_stage $end
$var wire 1 , clk $end
$var wire 1 h memRead $end
$var wire 1 g memWrite $end
$var wire 1 j memToReg_in $end
$var wire 1 i regWrite_in $end
$var wire 2 l w_spec_regs_in [1:0] $end
$var wire 1 m halt_in $end
$var wire 16 p alu_result [15:0] $end
$var wire 16 q write_data_mem [15:0] $end
$var wire 3 s write_reg_addr_in [2:0] $end
$var wire 16 w read_data_out [15:0] $end
$var wire 16 x alu_result_out [15:0] $end
$var wire 3 y write_reg_addr_out [2:0] $end
$var wire 1 z memToReg_out $end
$var wire 1 { regWrite_out $end
$var wire 2 | w_spec_regs_out [1:0] $end
$var wire 1 } halt_out $end
$scope module dmem $end
$var wire 1 , clk $end
$var wire 1 h MemRead $end
$var wire 1 g MemWrite $end
$var wire 16 p address [15:0] $end
$var wire 16 q write_data [15:0] $end
$var reg 16 :" read_data [15:0] $end
$var wire 16 ;" word_index [15:0] $end
$var integer 32 <" i [31:0] $end
$upscope $end
$upscope $end
$scope module mem_wb_reg $end
$var wire 1 , clk $end
$var wire 1 - rst $end
$var wire 1 { regWrite_in $end
$var wire 1 z memToReg_in $end
$var wire 2 | w_spec_regs_in [1:0] $end
$var wire 1 } halt_in $end
$var wire 16 w read_data_in [15:0] $end
$var wire 16 x alu_result_in [15:0] $end
$var wire 3 y write_reg_addr_in [2:0] $end
$var reg 1 =" regWrite_out $end
$var reg 1 >" memToReg_out $end
$var reg 1 ?" halt_out $end
$var reg 2 @" w_spec_regs_out [1:0] $end
$var reg 16 A" read_data_out [15:0] $end
$var reg 16 B" alu_result_out [15:0] $end
$var reg 3 C" write_reg_addr_out [2:0] $end
$upscope $end
$scope module wb_stage $end
$var wire 1 !! memToReg_in $end
$var wire 1 "! halt_in $end
$var wire 16 $! read_data_in [15:0] $end
$var wire 16 %! alu_result_in [15:0] $end
$var wire 16 '! wb_final_data [15:0] $end
$var wire 1 (! halt_out $end
$scope module wb_mux $end
$var wire 1 !! MemtoReg $end
$var wire 16 $! read_data [15:0] $end
$var wire 16 %! ALU_result [15:0] $end
$var wire 16 '! out [15:0] $end
$upscope $end
$upscope $end
$upscope $end
$upscope $end
$enddefinitions $end

#0
$dumpvars
0!
0!!
b0 !"
1"
0"!
b0 ""
b0 #
b10 #!
b0 #"
b0 $
b0 $!
b0 $"
b0 %
b0 %!
b0 %"
b10 &
b0 &!
b0 &"
b0 '
b0 '!
b0 '"
b0 (
0(!
b0 ("
b0 )
1)!
b0 )"
b0 *
b10 *!
bx *"
b0 +
b10 +!
b0 +"
0,
b0 ,!
b0 ,"
1-
b11111001000001 -!
b0 -"
b0 .
b0 .!
x."
b10 /
bx /!
0/"
b11111001000001 0
10!
00"
b0 1
01!
01"
b0 2
b0 2!
02"
b1100000000000000 3
b0 3!
b10 3"
14
b1100000000000000 4!
04"
05
bz 5!
b0 5"
06
bz 6!
b0 6"
07
07!
b0 7"
08
b0 8!
b0 8"
09
b0 9!
b0 9"
0:
0:!
b0 :"
0;
b1100 ;!
b0 ;"
b0 <
b0 <!
b10000000000 <"
b111111 =
b0 =!
0="
b11 >
b0 >!
0>"
b10 ?
b0 ?!
0?"
0@
b0 @!
b10 @"
0A
b0 A!
b0 A"
0B
b111111 B!
b0 B"
b0 C
b0 C!
b0 C"
b0 D
b11 D!
b0 E
b10 E!
b0 F
0F!
b0 G
0G!
b0 H
0H!
b0 I
0I!
b0 J
0J!
b0 K
0K!
b0 L
0L!
b111111 M
b0 M!
b0 N
b11 N!
b11 O
b10 O!
b10 P
0P!
0Q
0Q!
0R
0R!
0S
0S!
0T
0T!
0U
0U!
0V
0V!
0W
b111111 W!
0X
0X!
b0 Y
1Y!
b0 Z
0Z!
b0 [
b111111 [!
b0 \
b0 \!
b0 ]
b11 ]!
b0 ^
b10 ^!
b0 _
0_!
b0 `
0`!
b0 a
0a!
bx b
0b!
b0 c
0c!
0d
0d!
b0 e
0e!
b0 f
b0 f!
0g
b0 g!
0h
bx h!
0i
b0 i!
0j
0j!
bz k
b111111 k!
b10 l
b0 l!
0m
b11 m!
b0 n
b10 n!
b0 o
0o!
b0 p
0p!
b0 q
0q!
bz r
0r!
b0 s
0s!
zt
0t!
bz u
0u!
zv
b0 v!
b0 w
b0 w!
b0 x
b0 x!
b0 y
b0 y!
0z
b0 z!
0{
b0 {!
b10 |
b0 |!
0}
b0 }!
0~
b0 ~!
$end

#5000
1!
1,

#10000
0!
0,

#15000
1!
1,

#20000
0!
0"
0,
0-

#25000
1!
b1 !"
b10 #
b100 *!
b1 +
b100 +!
1,
b10 ,!
b11111010000010 -!
b10 .
b1 .!
b100 /
b11111010000010 0
b10 2
b11111001000001 3
b10 3!
b11111001000001 4!
16
bx 7"
19
b11 ;!
b0xxxxxxxxxxxxxxx ;"
b111 <!
b101000 =
b1 =!
b1 ?!
b1 @!
b111001000001 A!
b101000 B!
b1110010000010 D
b10 G
1G!
b1 H
b111 J
1J!
b1 K
1Q!
1T!
b101000 W!
b101000 [!
1`!
1c!
b1 f!
bx p
bx x

#30000
0!
0,

#35000
1!
b10 !"
b100 #
bx $
bx %!
bx '!
b1 '"
b110 *!
b1 *"
b10 +
b110 +!
1,
b100 ,!
b1010001011000 -!
b100 .
b10 .!
b110 /
b1010001011000 0
b10 1
b100 2
b10 2!
b11111010000010 3
b100 3!
b11111010000010 4!
b10 =!
b10 ?!
b10 @!
b111010000010 A!
bx B"
b1110100000100 D
b110 G
b10 H
b10 I
b10 K
b101000 M
1Q!
1R
1T!
1U
b101000 W!
b10 Z
b1 ]
b10 ^
b111 _
b1 `
b1 a
b1 b
b10 f!
b101000 k!
1p!
1s!
b10 w!
b1 z!
b10 {!
b111 |!
b1 }!
b1 ~!

#40000
0!
0,

#45000
1!
b11 !"
b110 #
b10 '"
b1000 *!
b10 *"
b11 +
b1000 +!
1,
b110 ,!
b1001010011000000 -!
b110 .
b11 .!
b1000 /
b1001010011000000 0
b100 1
11"
b110 2
b100 2!
b1010001011000 3
b110 3!
b1010001011000 4!
15
06
b10 6"
b1 7"
b1 9"
b1 ;!
b0 ;"
b10 <!
b1000 =
b1 =!
b11 >!
b0 ?!
b11000 @!
b10001011000 A!
b1000 B!
b100010110000 D
1F!
b110100 G
0G!
b11000 H
b100 I
b10 J
b1 K
b11 L
1P!
0Q!
1T!
b1000 W!
b10 Y
b100 Z
b1000 [!
b10 ]
b110 ^
1_!
b10 `
0`!
b10 a
b10 b
b11000 f!
1i
b10 o
b1 p
b1 s
b10 v!
b100 w!
b1 x
b1 y
b10 z!
1{
b110 {!
b10 }!
b10 ~!

#50000
0!
0,

#55000
1!
b11 !"
b10 ""
b1000 #
b1 #"
b1 $
b10 $"
b1 %
b1 %!
b1 %"
b1 &!
b10 &"
b1 '!
b1 '"
b10 ("
b1 )"
b1010 *!
b11 *"
b100 +
b1010 +!
1,
b1000 ,!
b1000010110000000 -!
b1000 .
b100 .!
b1010 /
b1000010110000000 0
b110 1
b1000 2
b110 2!
b1001010011000000 3
b1000 3!
b1001010011000000 4!
05
b10 5"
16
b100 6"
b10 7"
18
09
b10 9"
b1001 ;!
b1 ;"
b101101 =
b11 =!
1="
b0 >!
b0 @!
b10011000000 A!
b101101 B!
b1 B"
b10 C
b1 C"
b100110000000 D
0F!
b110 G
1G!
b0 H
1H!
b110 I
0J!
b11 K
b0 L
b1000 M
0P!
1Q
1Q!
0R
1R!
0T!
b101101 W!
b100 Y
b110 Z
b101101 [!
b11000 ]
b110100 ^
b10 _
0_!
b1 `
1`!
b11 a
1a!
b11 b
b1 c
0c!
b10 e
b1 f
b0 f!
b1 g!
b1000 k!
b10 n
b100 o
1o!
b10 p
0p!
b10 s
b100 v!
b110 w!
b10 x
b10 y
b11000 z!
b110100 {!
b10 |!
b1 }!
1~
b11 ~!

#60000
0!
0,

#65000
1!
b110 !"
b1 ""
b1010 #
b10 #"
b10 $
b1 $"
b10 %
b10 %!
b10 %"
b10 &!
b10 &"
b10 '!
b0 '"
b10 ("
b11 )"
b1100 *!
b10 *"
b101 +
b1100 +!
1,
b1010 ,!
b11110100000010 -!
b1010 .
b101 .!
b1100 /
b11110100000010 0
b1000 1
b1010 2
b1000 2!
b1000010110000000 3
b1010 3!
b1000010110000000 4!
b100 5"
b110 6"
17
b11 7"
08
b10 8!
b1 8"
19
b11 9"
1:
b1000 ;!
b101100 =
b110 =!
b10110000000 A!
b101100 B!
b10 B"
b10 C
b10 C"
b101100000000 D
b10 E
b1000 G
0H!
b1000 I
1I!
1J!
b110 K
1K!
b101101 M
0Q
1Q!
1R
0R!
1S
1S!
1T!
0U
1U!
b101100 W!
b110 Y
b1000 Z
b101100 [!
b0 ]
b110 ^
b11 `
0a!
b10 b
1b!
b11 c
1c!
1d!
b1 e
b10 f
b10 g!
b10 i!
b101101 k!
b100 n
b110 o
0o!
b11 p
1p!
b1 q
1q!
b11 s
0s!
b110 v!
b1000 w!
b11 x
b11 y
b0 z!
b110 {!
b11 }!

#70000
0!
0,

#75000
1!
b100 !"
b0 ""
b1100 #
b0 #"
b11 $
b0 $"
b11 %
b11 %!
b0 %"
b11 &!
b10 &"
b11 '!
b10 ("
0)!
b0 )"
b1110 *!
b10 *"
b110 +
b1110 +!
1,
b1100 ,!
bx -!
b1100 .
b110 .!
b1110 /
1/"
bx 0
00!
b1010 1
01"
b1100 2
b1010 2!
b11110100000010 3
b1100 3!
04
b11110100000010 4!
b110 5"
06
b1000 6"
07
b10 7"
b0 8!
b11 8"
09
0:
1:!
b11 ;!
b110 <!
b111111 =
b100 =!
b10 ?!
b10 @!
b110100000010 A!
b101000 B!
b11 B"
b10 C
b11 C"
b1101000000100 D
b0 E
b1110 G
b10 H
b1010 I
0I!
b110 J
b100 K
0K!
b101100 M
1Q!
0S
0S!
1T
1T!
1U
0U!
1V
b101000 W!
b1000 Y
0Y!
b1010 Z
1Z!
b10 [
b111111 [!
b1000 ^
b110 `
0`!
b110 a
0b!
b0 c
0c!
0d!
b0 e
b0 f
b10 f!
1g
b11 g!
0i
b0 i!
b101100 k!
b110 n
b1000 o
b10 p
b11 q
0q!
1r!
1s!
1t!
b1000 v!
b1010 w!
b10 x
b10 x!
0{
b1000 {!
b110 }!
b110 ~!

#80000
0!
0,

